<?xml version="1.0" encoding="utf-8" ?>
<COLLADA xmlns="http://www.collada.org/2005/11/COLLADASchema" version="1.4.1">
    <asset>
        <contributor>
            <authoring_tool>modo 701 [Build 68192], Microsoft Windows 7 Service Pack 1 (6.1.7601 Service Pack 1)</authoring_tool>
            <comments>Plug-in: [Build 68192]; Use Absolute Path: No; Merge Reference Items: No; Save Hidden Items: No; Save Cameras: No; Save Lights: Yes; Save Locators: Yes; Save Triangles as Triangles: Yes; Order Vertex Maps Alphabetically: Yes; Bake Matrices: No; Save Vertex Normals: Yes; Save UV Texture Coordinates: Yes; Save Vertex Colors: No; Save Vertex Weights: No; Save Animation: Yes; Sample Animation: No; Sample Animation Start: 0; Sample Animation End: 120; Save modo Profile: No; Save Maya Profile: No; Save 3ds Max Profile: No; Formatted Arrays: No;</comments>
            <source_data>file:///C:/Users/bcoker/Documents/Models/Miscellaneous/Vectors/Y-Axis%20Vector.lxo</source_data>
        </contributor>
        <created>2014-04-10T15:20:15Z</created>
        <modified>2014-04-10T15:20:15Z</modified>
        <up_axis>Y_UP</up_axis>
    </asset>
    <library_materials>
        <material id="Material-Default" name="Default">
            <instance_effect url="#Effect-Default" />
        </material>
    </library_materials>
    <library_effects>
        <effect id="Effect-Default" name="Default">
            <profile_COMMON>
                <technique sid="common">
                    <phong>
                        <diffuse>
                            <color sid="diffuse_effect_rgb">1 1 1 1</color>
                        </diffuse>
                        <specular>
                            <color sid="specular_effect_rgb">0.2 0.2 0.2 1</color>
                        </specular>
                        <shininess>
                            <float sid="specular_effect_rgb">256</float>
                        </shininess>
                    </phong>
                </technique>
            </profile_COMMON>
        </effect>
    </library_effects>
    <library_geometries>
        <geometry id="Geometry-mesh019" name="Y-Axis">
            <mesh>
                <source id="Geometry-mesh019-positions" name="positions">
                    <float_array id="Geometry-mesh019-positions-array" count="39">-0.015 -3.29597e-017 -0.015 0.015 -3.29597e-017 -0.015 0.015 2.42124e-017 0.015 -0.015 2.42124e-017 0.015 -0.015 0.867303 -0.015 0.015 0.867303 -0.015 0.015 0.867303 0.015 -0.015 0.867303 0.015 -0.03488 0.867303 -0.03488 0.03488 0.867303 -0.03488 0.03488 0.867303 0.03488 -0.03488 0.867303 0.03488 0 1 0</float_array>
                    <technique_common>
                        <accessor count="13" source="#Geometry-mesh019-positions-array" stride="3">
                            <param name="X" type="float" />
                            <param name="Y" type="float" />
                            <param name="Z" type="float" />
                        </accessor>
                    </technique_common>
                </source>
                <source id="Geometry-mesh019-normals" name="normals">
                    <float_array id="Geometry-mesh019-normals-array" count="30">0 -1 1.90574e-015 0 0 -1 1 0 0 0 0 1 -1 0 0 0 -1 0 0 0.254218 0.967147 0.967147 0.254218 0 0 0.254218 -0.967147 -0.967147 0.254218 0</float_array>
                    <technique_common>
                        <accessor count="10" source="#Geometry-mesh019-normals-array" stride="3">
                            <param name="X" type="float" />
                            <param name="Y" type="float" />
                            <param name="Z" type="float" />
                        </accessor>
                    </technique_common>
                </source>
                <source id="Geometry-mesh019-Texture" name="Texture">
                    <float_array id="Geometry-mesh019-Texture-array" count="38">0.25 0 0.5 0 0.5 0.333333 0.25 0.333333 1 0.666667 0.75 0.666667 0.75 0.333333 1 0.333333 0.5 0.666667 0.25 0.666667 0 0.666667 0 0.333333 0.693278 0.473389 0.0567222 0.473389 0.5 1 0.693278 1.19328 0.25 1 0.0567222 1.19328 0.382417 0.833333</float_array>
                    <technique_common>
                        <accessor count="19" source="#Geometry-mesh019-Texture-array" stride="2">
                            <param name="S" type="float" />
                            <param name="T" type="float" />
                        </accessor>
                    </technique_common>
                </source>
                <vertices id="Geometry-mesh019-vertices">
                    <input semantic="POSITION" source="#Geometry-mesh019-positions" />
                </vertices>
                <polylist count="13" material="Material-Default">
                    <input semantic="VERTEX" source="#Geometry-mesh019-vertices" offset="0" />
                    <input semantic="NORMAL" source="#Geometry-mesh019-normals" offset="1" />
                    <input semantic="TEXCOORD" source="#Geometry-mesh019-Texture" offset="2" set="0" />
                    <vcount>4 4 4 4 4 4 4 4 4 3 3 3 3</vcount>
                    <p>0 0 0 1 0 1 2 0 2 3 0 3 4 1 4 5 1 5 1 1 6 0 1 7 5 2 5 6 2 8 2 2 2 1 2 6 6 3 8 7 3 9 3 3 3 2 3 2 7 4 9 4 4 10 0 4 11 3 4 3 7 5 9 6 5 8 10 5 12 11 5 13 6 5 8 5 5 14 9 5 15 10 5 12 5 5 14 4 5 16 8 5 17 9 5 15 4 5 16 7 5 9 11 5 13 8 5 17 11 6 13 10 6 12 12 6 18 10 7 12 9 7 15 12 7 18 9 8 15 8 8 17 12 8 18 8 9 17 11 9 13 12 9 18</p>
                </polylist>
            </mesh>
        </geometry>
    </library_geometries>
    <library_lights>
        <light id="Light-polyRender005" name="Render">
            <technique_common>
                <ambient>
                    <color sid="ambient_light_rgb">0 0 0</color>
                </ambient>
            </technique_common>
        </light>
    </library_lights>
    <library_visual_scenes>
        <visual_scene id="DefaultScene">
            <node id="polyRender005" name="Render" type="NODE">
                <instance_light url="#Light-polyRender005" />
            </node>
            <node id="Geometry-mesh019Node" name="Y-Axis" type="NODE">
                <instance_geometry url="#Geometry-mesh019">
                    <bind_material>
                        <technique_common>
                            <instance_material symbol="Material-Default" target="#Material-Default" />
                        </technique_common>
                    </bind_material>
                </instance_geometry>
            </node>
        </visual_scene>
    </library_visual_scenes>
    <scene>
        <instance_visual_scene url="#DefaultScene" />
    </scene>
</COLLADA>
